{
  "name": "Team To-Do Backbone Project-portal",
  "type": "basic_webapp",
  "repoUrl": "https://github.com/feedhenry-training/team-to-do-backbone-project-portal.git",
  "repoBranch": "refs/heads/master"
}
